Vietnam MICS 2013-14 (Well Being Index)
…
  mutate(
    no_fem_eligible = structure(hh_n_fem_eligible == 0, label = "Household has no eligible women"),
    no_male_eligible = structure(NA, label = "Household has no eligible man"),
    no_child_eligible = structure(NA, label = "Household has no children eligible"),
    no_adults_eligible = structure(NA, 
                                label = "Household has no eligible women and men"),
    no_child_fem_eligible = structure(NA, 
                                label = "Household has no children or women eligible"),
    no_eligibles = structure(NA, 
                                label = "Household has no eligible women, men or children"),
    no_hem_eligible = structure(NA, label = "Household has no eligible individuals for hemoglobin measurement")
  ) %>% 
  select(-c("fem_eligible", "hh_n_fem_eligible"))

## # A tibble: 39,380 x 259
##    hh1.x hh2.x   hl1     hl3     hl4    hl5m  hl5y   hl6     hl7    hl7b
##    <dbl> <dbl> <dbl> <dbl+l> <dbl+l> <dbl+l> <dbl> <dbl> <dbl+l> <dbl+l>
##  1     1     1     1 1 [Hea~ 1 [Mal~  5       1964    49 0 [Not~ 0 [Not~
##  2     1     1     2 2 [Wif~ 2 [Fem~  6       1963    50 0 [Not~ 0 [Not~
##  3     1     1     3 3 [Son~ 1 [Mal~ 10       1998    15 0 [Not~ 0 [Not~
##  4     1     2     1 1 [Hea~ 2 [Fem~  9       1957    56 0 [Not~ 0 [Not~
##  5     1     2     2 3 [Son~ 2 [Fem~ 12       1986    27 2       0 [Not~
##  6     1     2     3 4 [Son~ 1 [Mal~ 11       1983    30 0 [Not~ 0 [Not~
##  7     1     2     4 5 [Gra~ 1 [Mal~  4       2011     2 0 [Not~ 4      
##  8     1     2     5 5 [Gra~ 1 [Mal~  5       2013     0 0 [Not~ 5      
##  9     1     3     1 1 [Hea~ 2 [Fem~ 98 [DK]  1943    70 0 [Not~ 0 [Not~
## 10     1     3     2 3 [Son~ 2 [Fem~  3       1978    35 2       0 [Not~
## # ... with 39,370 more rows, and 249 more variables: hl11 <dbl+lbl>,
## #   hl12 <dbl+lbl>, hl12a <dbl+lbl>, hl13 <dbl+lbl>, hl14 <dbl+lbl>,
## #   hl14a <dbl+lbl>, hl15 <dbl>, ed1 <dbl>, ed3 <dbl+lbl>, ed4a <dbl+lbl>,
## #   ed4b <dbl+lbl>, ed5 <dbl+lbl>, ed6a <dbl+lbl>, ed6b <dbl+lbl>,
## #   ed7 <dbl+lbl>, ed8a <dbl+lbl>, ed8b <dbl+lbl>, mp3 <dbl>, mp5 <dbl+lbl>,
## #   mp6 <dbl+lbl>, mp7 <dbl+lbl>, hh5d.x <dbl>, hh5m.x <dbl>, hh5y.x <dbl>,
## #   hh6.x <dbl+lbl>, hh7.x <dbl+lbl>, mline <dbl+lbl>, fline <dbl+lbl>,
## #   ethnicity.x <dbl+lbl>, helevel.x <dbl+lbl>, melevel <dbl+lbl>,
## #   felevel <dbl+lbl>, schage <dbl+lbl>, hhweight.x <dbl>, wscore.x <dbl>,
…
